Modelsim/motion_test_1/vsim.vcd
$date
	Sun Feb 21 17:59:49 2021
$end
$version
	ModelSim Version 10.5b
$end
$timescale
	100ps
$end
$scope module motion_test_1_tb $end
$var reg 1 ! async_uP_RW $end
$scope module uut $end
$var reg 1 " reset $end
$scope module uP_interface_sys $end
$var wire 1 # clk $end
$var wire 1 $ uP_start $end
$var wire 1 % uP_handshake_1 $end
$var reg 1 & uP_handshake_2 $end
$var reg 1 ' write_uP_byte $end
$var wire 1 ( uP_data [7] $end
$var wire 1 ) uP_data [6] $end
$var wire 1 * uP_data [5] $end
$var wire 1 + uP_data [4] $end
$var wire 1 , uP_data [3] $end
$var wire 1 - uP_data [2] $end
$var wire 1 . uP_data [1] $end
$var wire 1 / uP_data [0] $end
$var reg 1 0 uP_nFault $end
$var reg 1 5 read_bus_word $end
$var reg 8 6 target_count [7:0] $end
$var reg 8 7 counter [7:0] $end
$var reg 1 8 counter_zero $end
$scope module bus $end
$var reg 1 9 handshake_1 $end
$var wire 1 : handshake_2 $end
$var reg 1 ; RW $end
$var reg 8 < reg_address [7:0] $end
$var reg 1 = register_address_valid $end
$var reg 32 > data_out [31:0] $end
$var wire 1 ? data_in [31] $end
$var wire 1 @ data_in [30] $end
$var wire 1 A data_in [29] $end
$var wire 1 B data_in [28] $end
$var wire 1 C data_in [27] $end
$var wire 1 D data_in [26] $end
$var wire 1 E data_in [25] $end
$var wire 1 F data_in [24] $end
$var wire 1 G data_in [23] $end
$var wire 1 H data_in [22] $end
$var wire 1 I data_in [21] $end
$var wire 1 J data_in [20] $end
$var wire 1 K data_in [19] $end
$var wire 1 L data_in [18] $end
$var wire 1 M data_in [17] $end
$var wire 1 N data_in [16] $end
$var wire 1 O data_in [15] $end
$var wire 1 P data_in [14] $end
$var wire 1 Q data_in [13] $end
$var wire 1 R data_in [12] $end
$var wire 1 S data_in [11] $end
$var wire 1 T data_in [10] $end
$var wire 1 U data_in [9] $end
$var wire 1 V data_in [8] $end
$var wire 1 W data_in [7] $end
$var wire 1 X data_in [6] $end
$var wire 1 Y data_in [5] $end
$var wire 1 Z data_in [4] $end
$var wire 1 [ data_in [3] $end
$var wire 1 \ data_in [2] $end
$var wire 1 ] data_in [1] $end
$var wire 1 ^ data_in [0] $end
$upscope $end
$scope module uP_interface_FSM_sys $end
$var integer 32 _ state $end
$upscope $end
$upscope $end
$scope module intf $end
$var reg 1 ` handshake_1 $end
$var wire 1 a handshake_2 $end
$var reg 1 b RW $end
$var reg 8 c reg_address [7:0] $end
$var reg 1 d register_address_valid $end
$var reg 32 e data_out [31:0] $end
$var wire 1 f data_in [31] $end
$var wire 1 g data_in [30] $end
$var wire 1 h data_in [29] $end
$var wire 1 i data_in [28] $end
$var wire 1 j data_in [27] $end
$var wire 1 k data_in [26] $end
$var wire 1 l data_in [25] $end
$var wire 1 m data_in [24] $end
$var wire 1 n data_in [23] $end
$var wire 1 o data_in [22] $end
$var wire 1 p data_in [21] $end
$var wire 1 q data_in [20] $end
$var wire 1 r data_in [19] $end
$var wire 1 s data_in [18] $end
$var wire 1 t data_in [17] $end
$var wire 1 u data_in [16] $end
$var wire 1 v data_in [15] $end
$var wire 1 w data_in [14] $end
$var wire 1 x data_in [13] $end
$var wire 1 y data_in [12] $end
$var wire 1 z data_in [11] $end
$var wire 1 { data_in [10] $end
$var wire 1 | data_in [9] $end
$var wire 1 } data_in [8] $end
$var wire 1 ~ data_in [7] $end
$var wire 1 !! data_in [6] $end
$var wire 1 "! data_in [5] $end
$var wire 1 #! data_in [4] $end
$var wire 1 $! data_in [3] $end
$var wire 1 %! data_in [2] $end
$var wire 1 &! data_in [1] $end
$var wire 1 '! data_in [0] $end
$upscope $end
$scope begin QE_encoder[0] $end
$scope module QE_ch $end
$var reg 1 (! subsystem_enable $end
$upscope $end
$upscope $end
$upscope $end
$upscope $end
$enddefinitions $end
#0
0#
b1 "
x$
b0 !
x%
b0 &
b0 '
x/
x.
x-
x,
x+
x*
x)
x(
bx0 _
bx 0
b0 9
b0 `
z:
za
bx ;
bx b
bx <
bx c
b0 =
b0 d
bx >
bx e
z^
z'!
z]
z&!
z\
z%!
z[
z$!
zZ
z#!
zY
z"!
zX
z!!
zW
z~
zV
z}
zU
z|
zT
z{
zS
zz
zR
zy
zQ
zx
zP
zw
zO
zv
zN
zu
zM
zt
zL
zs
zK
zr
zJ
zq
zI
zp
zH
zo
zG
zn
zF
zm
zE
zl
zD
zk
zC
zj
zB
zi
zA
zh
z@
zg
z?
zf
b0 5
bx 6
bx 7
bx 8
b0 (!
b0 !
b0 (!
b0 5
b0 '
b0 9
b0 `
b0 &
z^
z'!
z]
z&!
z\
z%!
z[
z$!
zZ
z#!
zY
z"!
zX
z!!
zW
z~
zV
z}
zU
z|
zT
z{
zS
zz
zR
zy
zQ
zx
zP
zw
zO
zv
zN
zu
zM
zt
zL
zs
zK
zr
zJ
zq
zI
zp
zH
zo
zG
zn
zF
zm
zE
zl
zD
zk
zC
zj
zB
zi
zA
zh
z@
zg
z?
zf
b1 "
b0 =
b0 d
0#
z:
za
#100
1#
#200
0#
#300
1#
0$
0%
#400
0#
#500
b0 "
1#
b0 7
b0 6
b0 ;
b0 b
b0 <
b0 c
b1 8
bz 0
#600
0#
#700
1#
#800
0#
#900
1#
#1000
0#
#1100
1#
#1120
b1 "
#1200
0#
#1300
1#
#1400
0#
#1500
1#
#1600
0#
#1700
1#
#1800
0#
#1900
1#
#2000
0#
#2100
1#
1$
#2200
0#
#2300
1#
bx0 _
#2400
0#
#2500
1#
bx1 _
b110 6
b0 8
#2600
0#
#2700
1#
#2800
0#
#2900
1#
#3000
0#
#3100
1#
0$
#3200
0#
#3300
1#
#3400
0#
#3500
1#
#3600
0#
#3700
1#
#3790
b1 !
#3800
0#
#3900
1#
#4000
0#
#4100
1#
0/
0.
0-
0,
0+
0*
0)
0(
#4200
0#
#4300
1#
#4400
0#
#4500
1#
#4600
0#
#4700
1#
1%
#4800
0#
#4900
1#
bx _
#5000
0#
#5100
1#
bx _
b1 7
b101 6
b1 &
#5200
0#
#5300
1#
bx _
#5400
0#
#5500
1#
#5600
0#
#5700
1#
#5800
0#
#5900
1#
0%
#6000
0#
#6100
1#
bx _
b0 &
#6130
b0 !
z/
z.
z-
z,
z+
z*
z)
z(
#6200
0#
#6300
1#
bx1 _
#6400
0#
#6500
1#
x/
x.
x-
x,
x+
x*
x)
x(
#6600
0#
#6700
1#
#6800
0#
#6900
1#
#7000
0#
#7100
1#
#7200
0#
#7300
1#
#7400
0#
#7500
1#
#7600
0#
#7630
b1 !
#7700
1#
#7800
0#
#7900
1#
1/
0.
0-
1,
0+
0*
0)
0(
#8000
0#
#8100
1#
#8200
0#
#8300
1#
#8400
0#
#8500
1#
1%
#8600
0#
#8700
1#
bx _
#8800
0#
#8900
1#
bx _
b10 7
b100 6
b1001 <
b1001 c
b1 &
#9000
0#
#9100
1#
bx _
#9200
0#
#9300
1#
#9400
0#
#9500
1#
#9600
0#
#9700
1#
0%
#9800
0#
#9900
1#
bx _
b0 &
#9930
b0 !
z/
z.
z-
z,
z+
z*
z)
z(
#10000
0#
#10100
1#
bx1 _
#10200
0#
#10300
1#
x/
x.
x-
x,
x+
x*
x)
x(
#10400
0#
#10500
1#
#10600
0#
#10700
1#
#10800
0#
#10900
1#
#11000
0#
#11100
1#
#11200
0#
#11300
1#
#11400
0#
#11430
b1 !
#11500
1#
#11600
0#
#11700
1#
0/
0.
0-
0,
0+
0*
0)
0(
#11800
0#
#11900
1#
#12000
0#
#12100
1#
#12200
0#
#12300
1#
1%
#12400
0#
#12500
1#
bx _
#12600
0#
#12700
1#
bx _
b11 7
b11 6
bx00000000 >
bx00000000 e
b1 &
#12800
0#
#12900
1#
bx _
#13000
0#
#13100
1#
#13200
0#
#13300
1#
#13400
0#
#13500
1#
0%
#13600
0#
#13700
1#
bx _
b0 &
#13730
b0 !
z/
z.
z-
z,
z+
z*
z)
z(
#13800
0#
#13900
1#
bx1 _
#14000
0#
#14100
1#
x/
x.
x-
x,
x+
x*
x)
x(
#14200
0#
#14300
1#
#14400
0#
#14500
1#
#14600
0#
#14700
1#
#14800
0#
#14900
1#
#15000
0#
#15100
1#
#15200
0#
#15230
b1 !
#15300
1#
#15400
0#
#15500
1#
0/
0.
0-
0,
0+
0*
0)
0(
#15600
0#
#15700
1#
#15800
0#
#15900
1#
#16000
0#
#16100
1#
1%
#16200
0#
#16300
1#
bx _
#16400
0#
#16500
1#
bx _
b100 7
b10 6
bx0000000000000000 >
bx0000000000000000 e
b1 &
#16600
0#
#16700
1#
bx _
#16800
0#
#16900
1#
#17000
0#
#17100
1#
#17200
0#
#17300
1#
0%
#17400
0#
#17500
1#
bx _
b0 &
#17530
b0 !
z/
z.
z-
z,
z+
z*
z)
z(
#17600
0#
#17700
1#
bx1 _
#17800
0#
#17900
1#
x/
x.
x-
x,
x+
x*
x)
x(
#18000
0#
#18100
1#
#18200
0#
#18300
1#
#18400
0#
#18500
1#
#18600
0#
#18700
1#
#18800
0#
#18900
1#
#19000
0#
#19030
b1 !
#19100
1#
#19200
0#
#19300
1#
0/
0.
0-
0,
0+
0*
0)
0(
#19400
0#
#19500
1#
#19600
0#
#19700
1#
#19800
0#
#19900
1#
1%
#20000
0#
#20100
1#
bx _
#20200
0#
#20300
1#
bx _
b101 7
b1 6
bx000000000000000000000000 >
bx000000000000000000000000 e
b1 &
#20400
0#
#20500
1#
bx _
#20600
0#
#20700
1#
#20800
0#
#20900
1#
#21000
0#
#21100
1#
0%
#21200
0#
#21300
1#
bx _
b0 &
#21330
b0 !
z/
z.
z-
z,
z+
z*
z)
z(
#21400
0#
#21500
1#
bx1 _
#21600
0#
#21700
1#
x/
x.
x-
x,
x+
x*
x)
x(
#21800
0#
#21900
1#
#22000
0#
#22100
1#
#22200
0#
#22300
1#
#22400
0#
#22500
1#
#22600
0#
#22700
1#
#22800
0#
#22830
b1 !
#22900
1#
#23000
0#
#23100
1#
0/
0.
0-
0,
0+
0*
0)
0(
#23200
0#
#23300
1#
#23400
0#
#23500
1#
#23600
0#
#23700
1#
1%
#23800
0#
#23900
1#
bx _
#24000
0#
#24100
1#
bx _
b110 7
b0 6
b1 8
b0 >
b0 e
b1 &
#24200
0#
#24300
1#
bx _
#24400
0#
#24500
1#
#24600
0#
#24700
1#
#24800
0#
#24900
1#
0%
#25000
0#
#25100
1#
bx _
b0 &
#25130
b0 !
z/
z.
z-
z,
z+
z*
z)
z(
#25200
0#
#25300
1#
bx1 _
#25400
0#
#25500
1#
bx0 _
b1 9
b1 `
x/
x.
x-
x,
x+
x*
x)
x(
b1 =
b1 d
b1 (!
0:
0a
#25600
0#
#25700
1#
bx1 _
#25800
0#
#25900
1#
#26000
0#
#26100
1#
1:
1a
#26200
0#
#26300
1#
bx _
b0 9
b0 `
0:
0a
#26400
0#
#26500
1#
bx _
#26600
0#
#26700
1#
bx0 _
#26800
0#
#26900
1#
bx1 _
b100 6
b0 7
b0 8
0^
0'!
0]
0&!
0\
0%!
0[
0$!
0Z
0#!
0Y
0"!
0X
0!!
0W
0~
0V
0}
0U
0|
0T
0{
0S
0z
0R
0y
0Q
0x
0P
0w
0O
0v
0N
0u
0M
0t
0L
0s
0K
0r
0J
0q
0I
0p
0H
0o
0G
0n
0F
0m
0E
0l
0D
0k
0C
0j
0B
0i
0A
0h
0@
0g
0?
0f
b1 9
b1 `
1:
1a
#27000
0#
#27100
1#
bx _
#27200
0#
#27300
1#
bx _
b1 5
0:
0a
#27400
0#
#27500
1#
bx _
b100 7
b0 6
b1 8
z^
z'!
z]
z&!
z\
z%!
z[
z$!
zZ
z#!
zY
z"!
zX
z!!
zW
z~
zV
z}
zU
z|
zT
z{
zS
zz
zR
zy
zQ
zx
zP
zw
zO
zv
zN
zu
zM
zt
zL
zs
zK
zr
zJ
zq
zI
zp
zH
zo
zG
zn
zF
zm
zE
zl
zD
zk
zC
zj
zB
zi
zA
zh
z@
zg
z?
zf
b0 5
b0 9
b0 `
#27600
0#
#27700
1#
bx _
#27800
0#
#27900
1#
bx0 _
#28000
0#
#28100
1#
bx1 _
b100 6
b0 7
b0 8
b1 '
b0 =
b0 d
b0 (!
z:
za
#28200
0#
#28300
1#
bx _
b1 7
b11 6
b0 <
b0 c
0/
0.
0-
0,
0+
0*
0)
0(
b0 '
b1 &
#28400
0#
#28500
1#
bx _
#28600
0#
#28700
1#
#28800
0#
#28900
1#
#29000
0#
#29100
1#
#29200
0#
#29300
1#
#29400
0#
#29500
1#
#29600
0#
#29700
1#
#29800
0#
#29900
1#
#30000
0#
#30100
1#
1%
#30200
0#
#30300
1#
bx _
b0 &
#30400
0#
#30500
1#
bx _
#30600
0#
#30700
1#
#30800
0#
#30900
1#
#31000
0#
#31100
1#
#31200
0#
#31300
1#
#31400
0#
#31500
1#
0%
#31600
0#
#31700
1#
bx _
#31800
0#
#31900
1#
bx1 _
b1 '
#32000
0#
#32100
1#
bx _
b10 7
b10 6
b0 '
b1 &
#32200
0#
#32300
1#
bx _
#32400
0#
#32500
1#
#32600
0#
#32700
1#
#32800
0#
#32900
1#
#33000
0#
#33100
1#
#33200
0#
#33300
1#
#33400
0#
#33500
1#
#33600
0#
#33700
1#
#33800
0#
#33900
1#
1%
#34000
0#
#34100
1#
bx _
b0 &
#34200
0#
#34300
1#
bx _
#34400
0#
#34500
1#
#34600
0#
#34700
1#
#34800
0#
#34900
1#
#35000
0#
#35100
1#
#35200
0#
#35300
1#
0%
#35400
0#
#35500
1#
bx _
#35600
0#
#35700
1#
bx1 _
b1 '
#35800
0#
#35900
1#
bx _
b11 7
b1 6
b0 '
b1 &
#36000
0#
#36100
1#
bx _
#36200
0#
#36300
1#
#36400
0#
#36500
1#
#36600
0#
#36700
1#
#36800
0#
#36900
1#
#37000
0#
#37100
1#
#37200
0#
#37300
1#
#37400
0#
#37500
1#
#37600
0#
#37700
1#
1%
#37800
0#
#37900
1#
bx _
b0 &
#38000
0#
#38100
1#
bx _
#38200
0#
#38300
1#
#38400
0#
#38500
1#
#38600
0#
#38700
1#
#38800
0#
#38900
1#
#39000
0#
#39100
1#
0%
#39200
0#
#39300
1#
bx _
#39400
0#
#39500
1#
bx1 _
b1 '
#39600
0#
#39700
1#
bx _
b100 7
b0 6
b1 8
b0 '
b1 &
#39800
0#
#39900
1#
bx _
#40000
0#
#40100
1#
#40200
0#
#40300
1#
#40400
0#
#40500
1#
#40600
0#
#40700
1#
#40800
0#
#40900
1#
#41000
0#
#41100
1#
#41200
0#
#41300
1#
#41400
0#
#41500
1#
1%
#41600
0#
#41700
1#
bx _
b0 &
#41800
0#
#41900
1#
bx _
#42000
0#
#42100
1#
#42200
0#
#42300
1#
#42400
0#
#42500
1#
#42600
0#
#42700
1#
#42800
0#
#42900
1#
0%
#43000
0#
#43100
1#
bx _
#43200
0#
#43300
1#
bx _
#43400
0#
#43500
1#
bx _
#43600
0#
#43700
1#
bx _
#43800
0#
#43900
1#
bx0 _
#44000
0#
#44100
1#
#44200
0#
#44300
1#
1$
#44400
0#
#44500
1#
bx0 _
#44600
0#
#44700
1#
bx1 _
b110 6
b0 7
b0 8
#44800
0#
#44900
1#
#45000
0#
#45100
1#
#45200
0#
#45300
1#
0$
#45400
0#
#45500
1#
#45600
0#
#45700
1#
#45800
0#
#45900
1#
#45970
b1 !
x/
#46000
0#
#46100
1#
#46200
0#
#46300
1#
1/
#46400
0#
#46500
1#
#46600
0#
#46700
1#
1%
#46800
0#
#46900
1#
bx _
#47000
0#
#47100
1#
bx _
b1 7
b101 6
b1 ;
b1 b
b1 &
#47200
0#
#47300
1#
bx _
#47400
0#
#47500
1#
#47600
0#
#47700
1#
#47800
0#
#47900
1#
0%
#48000
0#
#48100
1#
bx _
b0 &
#48130
b0 !
z/
z.
z-
z,
z+
z*
z)
z(
#48200
0#
#48300
1#
bx1 _
#48400
0#
#48500
1#
0/
0.
0-
0,
0+
0*
0)
0(
#48600
0#
#48700
1#
#48800
0#
#48900
1#
#49000
0#
#49100
1#
#49200
0#
#49300
1#
#49400
0#
#49500
1#
#49600
0#
#49630
b1 !
x.
x-
x,
#49700
1#
#49800
0#
#49900
1#
1.
1-
1,
#50000
0#
#50100
1#
#50200
0#
#50300
1#
#50400
0#
#50500
1#
1%
#50600
0#
#50700
1#
bx _
#50800
0#
#50900
1#
bx _
b10 7
b100 6
b1110 <
b1110 c
b1 &
#51000
0#
#51100
1#
bx _
#51200
0#
#51300
1#
#51400
0#
#51500
1#
#51600
0#
#51700
1#
0%
#51800
0#
#51900
1#
bx _
b0 &
#51930
b0 !
z/
z.
z-
z,
z+
z*
z)
z(
#52000
0#
#52100
1#
bx1 _
#52200
0#
#52300
1#
0/
0.
0-
0,
0+
0*
0)
0(
#52400
0#
#52500
1#
#52600
0#
#52700
1#
#52800
0#
#52900
1#
#53000
0#
#53100
1#
#53200
0#
#53300
1#
#53400
0#
#53430
b1 !
x,
x+
x*
x)
x(
#53500
1#
#53600
0#
#53700
1#
1,
1+
1*
1)
1(
#53800
0#
#53900
1#
#54000
0#
#54100
1#
#54200
0#
#54300
1#
1%
#54400
0#
#54500
1#
bx _
#54600
0#
#54700
1#
bx _
b11 7
b11 6
b11111000 >
b11111000 e
b1 &
#54800
0#
#54900
1#
bx _
#55000
0#
#55100
1#
#55200
0#
#55300
1#
#55400
0#
#55500
1#
0%
#55600
0#
#55700
1#
bx _
b0 &
#55730
b0 !
z/
z.
z-
z,
z+
z*
z)
z(
#55800
0#
#55900
1#
bx1 _
#56000
0#
#56100
1#
0/
0.
0-
0,
0+
0*
0)
0(
#56200
0#
#56300
1#
#56400
0#
#56500
1#
#56600
0#
#56700
1#
#56800
0#
#56900
1#
#57000
0#
#57100
1#
#57200
0#
#57230
b1 !
#57300
1#
#57400
0#
#57500
1#
#57600
0#
#57700
1#
#57800
0#
#57900
1#
#58000
0#
#58100
1#
1%
#58200
0#
#58300
1#
bx _
#58400
0#
#58500
1#
bx _
b100 7
b10 6
b1 &
#58600
0#
#58700
1#
bx _
#58800
0#
#58900
1#
#59000
0#
#59100
1#
#59200
0#
#59300
1#
0%
#59400
0#
#59500
1#
bx _
b0 &
#59530
b0 !
z/
z.
z-
z,
z+
z*
z)
z(
#59600
0#
#59700
1#
bx1 _
#59800
0#
#59900
1#
0/
0.
0-
0,
0+
0*
0)
0(
#60000
0#
#60100
1#
#60200
0#
#60300
1#
#60400
0#
#60500
1#
#60600
0#
#60700
1#
#60800
0#
#60900
1#
#61000
0#
#61030
b1 !
#61100
1#
#61200
0#
#61300
1#
#61400
0#
#61500
1#
#61600
0#
#61700
1#
#61800
0#
#61900
1#
1%
#62000
0#
#62100
1#
bx _
#62200
0#
#62300
1#
bx _
b101 7
b1 6
b1 &
#62400
0#
#62500
1#
bx _
#62600
0#
#62700
1#
#62800
0#
#62900
1#
#63000
0#
#63100
1#
0%
#63200
0#
#63300
1#
bx _
b0 &
#63330
b0 !
z/
z.
z-
z,
z+
z*
z)
z(
#63400
0#
#63500
1#
bx1 _
#63600
0#
#63700
1#
0/
0.
0-
0,
0+
0*
0)
0(
#63800
0#
#63900
1#
#64000
0#
#64100
1#
#64200
0#
#64300
1#
#64400
0#
#64500
1#
#64600
0#
#64700
1#
#64800
0#
#64830
b1 !
#64900
1#
#65000
0#
#65100
1#
#65200
0#
#65300
1#
#65400
0#
#65500
1#
#65600
0#
#65700
1#
1%
#65800
0#
#65900
1#
bx _
#66000
0#
#66100
1#
bx _
b110 7
b0 6
b1 8
b1 &
#66200
0#
#66300
1#
bx _
#66400
0#
#66500
1#
#66600
0#
#66700
1#
#66800
0#
#66900
1#
0%
#67000
0#
#67100
1#
bx _
b0 &
#67130
b0 !
z/
z.
z-
z,
z+
z*
z)
z(
#67200
0#
#67300
1#
bx1 _
#67400
0#
#67500
1#
bx0 _
b1 9
b1 `
0/
0.
0-
0,
0+
0*
0)
0(
b1 =
b1 d
b1 (!
0:
0a
#67600
0#
#67700
1#
bx1 _
#67800
0#
#67900
1#
#68000
0#
#68100
1#
1:
1a
#68200
0#
#68300
1#
bx _
b0 9
b0 `
#68400
0#
#68500
1#
bx _
0:
0a
#68600
0#
#68700
1#
bx0 _
#68800
0#
#68900
1#
bx1 _
b100 6
b0 7
b0 8
b1 9
b1 `
#69000
0#
#69100
1#
bx _
0^
0'!
0]
0&!
0\
0%!
1[
1$!
1Z
1#!
1Y
1"!
1X
1!!
1W
1~
0V
0}
0U
0|
0T
0{
0S
0z
0R
0y
0Q
0x
0P
0w
0O
0v
0N
0u
0M
0t
0L
0s
0K
0r
0J
0q
0I
0p
0H
0o
0G
0n
0F
0m
0E
0l
0D
0k
0C
0j
0B
0i
0A
0h
0@
0g
0?
0f
1:
1a
#69200
0#
#69300
1#
bx _
b1 5
#69400
0#
#69500
1#
bx _
b100 7
b0 6
b1 8
b0 5
b0 9
b0 `
0:
0a
#69600
0#
#69700
1#
bx _
z^
z'!
z]
z&!
z\
z%!
z[
z$!
zZ
z#!
zY
z"!
zX
z!!
zW
z~
zV
z}
zU
z|
zT
z{
zS
zz
zR
zy
zQ
zx
zP
zw
zO
zv
zN
zu
zM
zt
zL
zs
zK
zr
zJ
zq
zI
zp
zH
zo
zG
zn
zF
zm
zE
zl
zD
zk
zC
zj
zB
zi
zA
zh
z@
zg
z?
zf
#69800
0#
#69900
1#
bx0 _
#70000
0#
#70100
1#
bx1 _
b100 6
b0 7
b0 8
b1 '
b0 =
b0 d
b0 (!
z:
za
#70200
0#
#70300
1#
bx _
b1 7
b11 6
b0 <
b0 c
1,
1+
1*
1)
1(
b0 '
b1 &
#70400
0#
#70500
1#
bx _
#70600
0#
#70700
1#
#70800
0#
#70900
1#
#71000
0#
#71100
1#
#71200
0#
#71300
1#
#71400
0#
#71500
1#
#71600
0#
#71700
1#
#71800
0#
#71900
1#
#72000
0#
#72100
1#
1%
#72200
0#
#72300
1#
bx _
b0 &
#72400
0#
#72500
1#
bx _
#72600
0#
#72700
1#
#72800
0#
#72900
1#
#73000
0#
#73100
1#
#73200
0#
#73300
1#
#73400
0#
#73500
1#
0%
#73600
0#
#73700
1#
bx _
#73800
0#
#73900
1#
bx1 _
b1 '
#74000
0#
#74100
1#
bx _
b10 7
b10 6
0,
0+
0*
0)
0(
b0 '
b1 &
#74200
0#
#74300
1#
bx _
#74400
0#
#74500
1#
#74600
0#
#74700
1#
#74800
0#
#74900
1#
#75000
0#
#75100
1#
#75200
0#
#75300
1#
#75400
0#
#75500
1#
#75600
0#
#75700
1#
#75800
0#
#75900
1#
1%
#76000
0#
#76100
1#
bx _
b0 &
#76200
0#
#76300
1#
bx _
#76400
0#
#76500
1#
#76600
0#
#76700
1#
#76800
0#
#76900
1#
#77000
0#
#77100
1#
#77200
0#
#77300
1#
0%
#77400
0#
#77500
1#
bx _
#77600
0#
#77700
1#
bx1 _
b1 '
#77800
0#
#77900
1#
bx _
b11 7
b1 6
b0 '
b1 &
#78000
0#
#78100
1#
bx _
#78200
0#
#78300
1#
#78400
0#
#78500
1#
#78600
0#
#78700
1#
#78800
0#
#78900
1#
#79000
0#
#79100
1#
#79200
0#
#79300
1#
#79400
0#
#79500
1#
#79600
0#
#79700
1#
1%
#79800
0#
#79900
1#
bx _
b0 &
#80000
0#
#80100
1#
bx _
#80200
0#
#80300
1#
#80400
0#
#80500
1#
#80600
0#
#80700
1#
#80800
0#
#80900
1#
#81000
0#
#81100
1#
0%
#81200
0#
#81300
1#
bx _
#81400
0#
#81500
1#
bx1 _
b1 '
#81600
0#
#81700
1#
bx _
b100 7
b0 6
b1 8
b0 '
b1 &
#81800
0#
#81900
1#
bx _
#82000
0#
#82100
1#
#82200
0#
#82300
1#
#82400
0#
#82500
1#
#82600
0#
#82700
1#
#82800
0#
#82900
1#
#83000
0#
#83100
1#
#83200
0#
#83300
1#
#83400
0#
#83500
1#
1%
#83600
0#
#83700
1#
bx _
b0 &
#83800
0#
#83900
1#
bx _
#84000
0#
#84100
1#
#84200
0#
#84300
1#
#84400
0#
#84500
1#
#84600
0#
#84700
1#
#84800
0#
#84900
1#
0%
#85000
0#
#85100
1#
bx _
#85200
0#
#85300
1#
bx _
#85400
0#
#85500
1#
bx _
#85600
0#
#85700
1#
bx _
#85800
0#
#85900
1#
bx0 _
#86000
0#
#86100
1#
#86200
0#
#86300
1#
1$
#86400
0#
#86500
1#
bx0 _
#86600
0#
#86700
1#
bx1 _
b110 6
b0 7
b0 8
#86800
0#
#86900
1#
#87000
0#
#87100
1#
#87200
0#
#87300
1#
0$
#87400
0#
#87500
1#
#87600
0#
#87700
1#
#87800
0#
#87900
1#
#87970
b1 !
#88000
0#
#88100
1#
#88200
0#
#88300
1#
#88400
0#
#88500
1#
#88600
0#
#88700
1#
1%
#88800
0#
#88900
1#
bx _
#89000
0#
#89100
1#
bx _
b1 7
b101 6
b0 ;
b0 b
b1 &
#89200
0#
#89300
1#
bx _
#89400
0#
#89500
1#
#89600
0#
#89700
1#
#89800
0#
#89900
1#
0%
#90000
0#
#90100
1#
bx _
b0 &
#90130
b0 !
z/
z.
z-
z,
z+
z*
z)
z(
#90200
0#
#90300
1#
bx1 _
#90400
0#
#90500
1#
0/
0.
0-
0,
0+
0*
0)
0(
#90600
0#
#90700
1#
#90800
0#
#90900
1#
#91000
0#
#91100
1#
#91200
0#
#91300
1#
#91400
0#
#91500
1#
#91600
0#
#91630
b1 !
x.
x,
#91700
1#
#91800
0#
#91900
1#
1.
1,
#92000
0#
#92100
1#
#92200
0#
#92300
1#
#92400
0#
#92500
1#
1%
#92600
0#
#92700
1#
bx _
#92800
0#
#92900
1#
bx _
b10 7
b100 6
b1010 <
b1010 c
b1 &
#93000
0#
#93100
1#
bx _
#93200
0#
#93300
1#
#93400
0#
#93500
1#
#93600
0#
#93700
1#
0%
#93800
0#
#93900
1#
bx _
b0 &
#93930
b0 !
z/
z.
z-
z,
z+
z*
z)
z(
#94000
0#
#94100
1#
bx1 _
#94200
0#
#94300
1#
0/
0.
0-
0,
0+
0*
0)
0(
#94400
0#
#94500
1#
#94600
0#
#94700
1#
#94800
0#
#94900
1#
#95000
0#
#95100
1#
#95200
0#
#95300
1#
#95400
0#
#95430
b1 !
#95500
1#
#95600
0#
#95700
1#
#95800
0#
#95900
1#
#96000
0#
#96100
1#
#96200
0#
#96300
1#
1%
#96400
0#
#96500
1#
bx _
#96600
0#
#96700
1#
bx _
b11 7
b11 6
b0 >
b0 e
b1 &
#96800
0#
#96900
1#
bx _
#97000
0#
#97100
1#
#97200
0#
#97300
1#
#97400
0#
#97500
1#
0%
#97600
0#
#97700
1#
bx _
b0 &
#97730
b0 !
z/
z.
z-
z,
z+
z*
z)
z(
#97800
0#
#97900
1#
bx1 _
#98000
0#
#98100
1#
0/
0.
0-
0,
0+
0*
0)
0(
#98200
0#
#98300
1#
#98400
0#
#98500
1#
#98600
0#
#98700
1#
#98800
0#
#98900
1#
#99000
0#
#99100
1#
#99200
0#
#99230
b1 !
#99300
1#
#99400
0#
#99500
1#
#99600
0#
#99700
1#
#99800
0#
#99900
1#
#100000
0#
#100100
1#
1%
#100200
0#
#100300
1#
bx _
#100400
0#
#100500
1#
bx _
b100 7
b10 6
b1 &
#100600
0#
#100700
1#
bx _
#100800
0#
#100900
1#
#101000
0#
#101100
1#
#101200
0#
#101300
1#
0%
#101400
0#
#101500
1#
bx _
b0 &
#101530
b0 !
z/
z.
z-
z,
z+
z*
z)
z(
#101600
0#
#101700
1#
bx1 _
#101800
0#
#101900
1#
0/
0.
0-
0,
0+
0*
0)
0(
#102000
0#
#102100
1#
#102200
0#
#102300
1#
#102400
0#
#102500
1#
#102600
0#
#102700
1#
#102800
0#
#102900
1#
#103000
0#
#103030
b1 !
#103100
1#
#103200
0#
#103300
1#
#103400
0#
#103500
1#
#103600
0#
#103700
1#
#103800
0#
#103900
1#
1%
#104000
0#
#104100
1#
bx _
#104200
0#
#104300
1#
bx _
b101 7
b1 6
b1 &
#104400
0#
#104500
1#
bx _
#104600
0#
#104700
1#
#104800
0#
#104900
1#
#105000
0#
#105100
1#
0%
#105200
0#
#105300
1#
bx _
b0 &
#105330
b0 !
z/
z.
z-
z,
z+
z*
z)
z(
#105400
0#
#105500
1#
bx1 _
#105600
0#
#105700
1#
0/
0.
0-
0,
0+
0*
0)
0(
#105800
0#
#105900
1#
#106000
0#
#106100
1#
#106200
0#
#106300
1#
#106400
0#
#106500
1#
#106600
0#
#106700
1#
#106800
0#
#106830
b1 !
#106900
1#
#107000
0#
#107100
1#
#107200
0#
#107300
1#
#107400
0#
#107500
1#
#107600
0#
#107700
1#
1%
#107800
0#
#107900
1#
bx _
#108000
0#
#108100
1#
bx _
b110 7
b0 6
b1 8
b1 &
#108200
0#
#108300
1#
bx _
#108400
0#
#108500
1#
#108600
0#
#108700
1#
#108800
0#
#108900
1#
0%
#109000
0#
#109100
1#
bx _
b0 &
#109130
b0 !
z/
z.
z-
z,
z+
z*
z)
z(
#109200
0#
#109300
1#
bx1 _
#109400
0#
#109500
1#
bx0 _
b1 9
b1 `
0/
0.
0-
0,
0+
0*
0)
0(
b1 =
b1 d
b1 (!
0:
0a
#109600
0#
#109700
1#
bx1 _
#109800
0#
#109900
1#
#110000
0#
#110100
1#
1:
1a
#110200
0#
#110300
1#
bx _
b0 9
b0 `
0:
0a
#110400
0#
#110500
1#
bx _
#110600
0#
#110700
1#
bx0 _
#110800
0#
